{
  "timestamp": 1756343446.644607,
  "query": "ethereal light particles floating in space",
  "page": 1,
  "per_page": 3,
  "filters": {},
  "result": {
    "items": [
      {
        "id": "9665188",
        "url": "https://www.pexels.com/photo/white-dust-particles-on-black-background-9665188/",
        "download_url": "https://images.pexels.com/photos/9665188/pexels-photo-9665188.jpeg",
        "title": "Photo by cottonbro studio",
        "description": "A captivating image of glittering dust particles suspended on a black background.",
        "tags": [
          "ethereal light particles floating in space"
        ],
        "width": 2666,
        "height": 4000,
        "file_size": null,
        "photographer": "cottonbro studio",
        "photographer_url": "https://www.pexels.com/@cottonbro",
        "provider": "Pexels"
      },
      {
        "id": "9667824",
        "url": "https://www.pexels.com/photo/white-tiny-particles-on-black-background-9667824/",
        "download_url": "https://images.pexels.com/photos/9667824/pexels-photo-9667824.jpeg",
        "title": "Photo by cottonbro studio",
        "description": "Dark black background adorned with floating particles creating a mysterious effect.",
        "tags": [
          "ethereal light particles floating in space"
        ],
        "width": 3010,
        "height": 4516,
        "file_size": null,
        "photographer": "cottonbro studio",
        "photographer_url": "https://www.pexels.com/@cottonbro",
        "provider": "Pexels"
      },
      {
        "id": "9665216",
        "url": "https://www.pexels.com/photo/white-dust-and-black-background-9665216/",
        "download_url": "https://images.pexels.com/photos/9665216/pexels-photo-9665216.jpeg",
        "title": "Photo by cottonbro studio",
        "description": "Close-up of dust particles floating in space against a black background.",
        "tags": [
          "ethereal light particles floating in space"
        ],
        "width": 6720,
        "height": 4480,
        "file_size": null,
        "photographer": "cottonbro studio",
        "photographer_url": "https://www.pexels.com/@cottonbro",
        "provider": "Pexels"
      }
    ],
    "total_results": 8000,
    "page": 1,
    "per_page": 3,
    "has_next": true
  }
}