{
  "timestamp": 1756343492.9892342,
  "query": "red 2019 Tesla Model S parked in front of glass office building",
  "page": 1,
  "per_page": 3,
  "filters": {},
  "result": {
    "items": [
      {
        "id": "8622808",
        "url": "https://www.pexels.com/photo/red-crossroad-mercedes-standing-at-building-8622808/",
        "download_url": "https://images.pexels.com/photos/8622808/pexels-photo-8622808.jpeg",
        "title": "Photo by Ishan Kulshrestha",
        "description": "A striking red Mercedes SUV parked at an urban crossroad, showcasing modern automotive design.",
        "tags": [
          "red 2019 Tesla Model S parked in front of glass office building"
        ],
        "width": 5794,
        "height": 3863,
        "file_size": null,
        "photographer": "Ishan Kulshrestha",
        "photographer_url": "https://www.pexels.com/@ishankulshrestha69",
        "provider": "Pexels"
      },
      {
        "id": "19453624",
        "url": "https://www.pexels.com/photo/high-line-19453624/",
        "download_url": "https://images.pexels.com/photos/19453624/pexels-photo-19453624.jpeg",
        "title": "Photo by Following NYC",
        "description": "A captivating view of modern skyscrapers and urban life in New York City.",
        "tags": [
          "red 2019 Tesla Model S parked in front of glass office building"
        ],
        "width": 3876,
        "height": 2790,
        "file_size": null,
        "photographer": "Following NYC",
        "photographer_url": "https://www.pexels.com/@followingnyc",
        "provider": "Pexels"
      },
      {
        "id": "12960660",
        "url": "https://www.pexels.com/photo/photo-of-a-red-motorcycle-12960660/",
        "download_url": "https://images.pexels.com/photos/12960660/pexels-photo-12960660.jpeg",
        "title": "Photo by Ibrahim Bilgin",
        "description": "A sleek red sports motorcycle parked on a brick pavement outside a modern building, perfect for bike enthusiasts.",
        "tags": [
          "red 2019 Tesla Model S parked in front of glass office building"
        ],
        "width": 4672,
        "height": 5840,
        "file_size": null,
        "photographer": "Ibrahim Bilgin",
        "photographer_url": "https://www.pexels.com/@ibragraphics",
        "provider": "Pexels"
      }
    ],
    "total_results": 8000,
    "page": 1,
    "per_page": 3,
    "has_next": true
  }
}