{
  "timestamp": 1756343255.611871,
  "query": "professional business meeting in modern conference room",
  "page": 1,
  "per_page": 5,
  "filters": {},
  "result": {
    "items": [
      {
        "id": "6150527",
        "url": "https://www.pexels.com/photo/man-in-sweatshirt-in-front-of-people-6150527/",
        "download_url": "https://images.pexels.com/photos/6150527/pexels-photo-6150527.jpeg",
        "title": "Photo by Diva Plavalaguna",
        "description": "A man delivers a presentation in a modern office to a diverse group of colleagues.",
        "tags": [
          "professional business meeting in modern conference room"
        ],
        "width": 5000,
        "height": 3333,
        "file_size": null,
        "photographer": "Diva Plavalaguna",
        "photographer_url": "https://www.pexels.com/@diva-plavalaguna",
        "provider": "Pexels"
      },
      {
        "id": "6794965",
        "url": "https://www.pexels.com/photo/table-with-chairs-in-conference-room-6794965/",
        "download_url": "https://images.pexels.com/photos/6794965/pexels-photo-6794965.jpeg",
        "title": "Photo by Max Vakhtbovycn",
        "description": "Stylish contemporary conference room with red chairs and whiteboard wall.",
        "tags": [
          "professional business meeting in modern conference room"
        ],
        "width": 7182,
        "height": 4676,
        "file_size": null,
        "photographer": "Max Vakhtbovycn",
        "photographer_url": "https://www.pexels.com/@heyho",
        "provider": "Pexels"
      },
      {
        "id": "7223036",
        "url": "https://www.pexels.com/photo/person-in-brown-coat-holding-clear-drinking-glass-7223036/",
        "download_url": "https://images.pexels.com/photos/7223036/pexels-photo-7223036.jpeg",
        "title": "Photo by MART  PRODUCTION",
        "description": "A professional businesswoman in a stylish office environment with a laptop and notes.",
        "tags": [
          "professional business meeting in modern conference room"
        ],
        "width": 5881,
        "height": 3921,
        "file_size": null,
        "photographer": "MART  PRODUCTION",
        "photographer_url": "https://www.pexels.com/@mart-production",
        "provider": "Pexels"
      },
      {
        "id": "7652243",
        "url": "https://www.pexels.com/photo/woman-in-black-long-sleeve-shirt-sitting-on-chair-7652243/",
        "download_url": "https://images.pexels.com/photos/7652243/pexels-photo-7652243.jpeg",
        "title": "Photo by Thirdman",
        "description": "Portrait of a woman in a modern office pondering ideas, holding a notebook and pen.",
        "tags": [
          "professional business meeting in modern conference room"
        ],
        "width": 6646,
        "height": 4431,
        "file_size": null,
        "photographer": "Thirdman",
        "photographer_url": "https://www.pexels.com/@thirdman",
        "provider": "Pexels"
      },
      {
        "id": "6794971",
        "url": "https://www.pexels.com/photo/interior-of-modern-conference-room-6794971/",
        "download_url": "https://images.pexels.com/photos/6794971/pexels-photo-6794971.jpeg",
        "title": "Photo by Max Vakhtbovycn",
        "description": "Elegant and colorful conference room with orange chairs and modern decor.",
        "tags": [
          "professional business meeting in modern conference room"
        ],
        "width": 7333,
        "height": 4896,
        "file_size": null,
        "photographer": "Max Vakhtbovycn",
        "photographer_url": "https://www.pexels.com/@heyho",
        "provider": "Pexels"
      }
    ],
    "total_results": 8000,
    "page": 1,
    "per_page": 5,
    "has_next": true
  }
}